{
    "openapi": "3.0.3",
    "info": {
        "title": "Laravel — Task Management API",
        "version": "1.0.0",
        "description": "Документация сгенерирована автоматически командой `php artisan docs:generate` на основе реальных request/response, записанных во время прогона Feature-тестов (tests/Feature/Api/V1/TaskControllerTest.php). Эндпоинты без покрывающего теста помечены как непротестированные."
    },
    "servers": [
        {
            "url": "/api/v1"
        }
    ],
    "paths": {
        "/tasks": {
            "get": {
                "summary": "tasks.index",
                "operationId": "tasks.index",
                "parameters": [],
                "responses": {
                    "200": {
                        "description": "Реальный ответ из теста (HTTP 200)",
                        "content": {
                            "application/json": {
                                "example": {
                                    "data": [
                                        {
                                            "id": 1,
                                            "title": "Eos quidem ratione aut provident.",
                                            "description": "In architecto qui velit. Labore rem voluptas blanditiis voluptatem repudiandae. Veniam amet rerum et.",
                                            "due_date": "2026-07-13T06:31:58+00:00",
                                            "create_date": "2026-06-22T12:36:54+00:00",
                                            "status": "выполнена",
                                            "priority": "высокий",
                                            "category": "Личное"
                                        },
                                        {
                                            "id": 2,
                                            "title": "Minima sunt.",
                                            "description": "Eos quis eius vel quasi qui omnis. Ut temporibus vitae earum. Pariatur sit sit ipsum vel nulla maiores voluptatem.",
                                            "due_date": "2026-07-17T04:32:14+00:00",
                                            "create_date": "2026-06-22T12:36:54+00:00",
                                            "status": "не выполнена",
                                            "priority": "низкий",
                                            "category": "Личное"
                                        },
                                        {
                                            "id": 3,
                                            "title": "Eos quis.",
                                            "description": "Ea ad quaerat quibusdam rerum incidunt. Placeat perferendis atque earum reiciendis labore omnis. Nobis illo nulla natus repellat hic.",
                                            "due_date": "2026-07-13T15:56:11+00:00",
                                            "create_date": "2026-06-22T12:36:54+00:00",
                                            "status": "не выполнена",
                                            "priority": "средний",
                                            "category": "Дом"
                                        },
                                        {
                                            "id": 4,
                                            "title": "Beatae qui impedit.",
                                            "description": null,
                                            "due_date": "2026-07-15T14:34:43+00:00",
                                            "create_date": "2026-06-22T12:36:54+00:00",
                                            "status": "выполнена",
                                            "priority": "низкий",
                                            "category": "Личное"
                                        },
                                        {
                                            "id": 5,
                                            "title": "Minus quas.",
                                            "description": "Sed odit ut assumenda ut ut. Iusto odit fugiat quibusdam dicta. Nulla non unde non pariatur velit. Vel dolorem iste qui odit.",
                                            "due_date": "2026-07-18T11:26:05+00:00",
                                            "create_date": "2026-06-22T12:36:54+00:00",
                                            "status": "выполнена",
                                            "priority": "средний",
                                            "category": "Работа"
                                        }
                                    ],
                                    "payload": [],
                                    "pagination": {
                                        "current_page": 1,
                                        "last_page": 4,
                                        "per_page": 5,
                                        "total": 20
                                    }
                                }
                            }
                        }
                    }
                }
            },
            "post": {
                "summary": "tasks.store",
                "operationId": "tasks.store",
                "parameters": [],
                "responses": {
                    "201": {
                        "description": "Реальный ответ из теста (HTTP 201)",
                        "content": {
                            "application/json": {
                                "example": {
                                    "code": 201,
                                    "data": {
                                        "id": 1
                                    },
                                    "message": "Task created successfully"
                                }
                            }
                        }
                    },
                    "422": {
                        "description": "Реальный ответ из теста (HTTP 422)",
                        "content": {
                            "application/json": {
                                "example": {
                                    "code": 422,
                                    "errors": {
                                        "title": [
                                            "Необходимо заполнить."
                                        ],
                                        "due_date": [
                                            "Необходимо заполнить."
                                        ],
                                        "priority": [
                                            "Необходимо заполнить."
                                        ],
                                        "category": [
                                            "Необходимо заполнить."
                                        ]
                                    },
                                    "message": "Необходимо заполнить обязательные поля."
                                }
                            }
                        }
                    }
                },
                "requestBody": {
                    "content": {
                        "application/json": {
                            "example": {
                                "title": "Задача1",
                                "description": "Задача1 описание",
                                "due_date": "2025-01-20T15:00:00",
                                "priority": "высокий",
                                "category": "Работа",
                                "status": "не выполнена"
                            }
                        }
                    }
                }
            }
        },
        "/tasks/{id}": {
            "get": {
                "summary": "tasks.show",
                "operationId": "tasks.show",
                "parameters": [
                    {
                        "name": "id",
                        "in": "path",
                        "required": true,
                        "schema": {
                            "type": "integer"
                        }
                    }
                ],
                "responses": {
                    "200": {
                        "description": "Реальный ответ из теста (HTTP 200)",
                        "content": {
                            "application/json": {
                                "example": {
                                    "data": {
                                        "id": 1,
                                        "title": "Voluptatem cumque id.",
                                        "description": null,
                                        "due_date": "2026-07-15T12:50:09+00:00",
                                        "create_date": "2026-06-22T12:36:54+00:00",
                                        "status": "не выполнена",
                                        "priority": "средний",
                                        "category": "Личное"
                                    }
                                }
                            }
                        }
                    },
                    "404": {
                        "description": "Реальный ответ из теста (HTTP 404)",
                        "content": {
                            "application/json": {
                                "example": {
                                    "code": 404,
                                    "message": "Задача с ID 999999 не найдена."
                                }
                            }
                        }
                    }
                }
            },
            "put": {
                "summary": "tasks.update",
                "operationId": "tasks.update",
                "parameters": [
                    {
                        "name": "id",
                        "in": "path",
                        "required": true,
                        "schema": {
                            "type": "integer"
                        }
                    }
                ],
                "responses": {
                    "200": {
                        "description": "Реальный ответ из теста (HTTP 200)",
                        "content": {
                            "application/json": {
                                "example": {
                                    "code": 200,
                                    "message": "Task updated successfully"
                                }
                            }
                        }
                    },
                    "422": {
                        "description": "Реальный ответ из теста (HTTP 422)",
                        "content": {
                            "application/json": {
                                "example": {
                                    "code": 422,
                                    "errors": {
                                        "priority": [
                                            "Выбранное значение недопустимо."
                                        ]
                                    },
                                    "message": "Необходимо заполнить обязательные поля."
                                }
                            }
                        }
                    },
                    "404": {
                        "description": "Реальный ответ из теста (HTTP 404)",
                        "content": {
                            "application/json": {
                                "example": {
                                    "code": 404,
                                    "message": "Задача с ID 999999 не найдена."
                                }
                            }
                        }
                    }
                },
                "requestBody": {
                    "content": {
                        "application/json": {
                            "example": {
                                "title": "X"
                            }
                        }
                    }
                }
            },
            "patch": {
                "summary": "tasks.patch",
                "operationId": "tasks.patch",
                "parameters": [
                    {
                        "name": "id",
                        "in": "path",
                        "required": true,
                        "schema": {
                            "type": "integer"
                        }
                    }
                ],
                "responses": {
                    "200": {
                        "description": "Реальный ответ из теста (HTTP 200)",
                        "content": {
                            "application/json": {
                                "example": {
                                    "code": 200,
                                    "message": "Task updated successfully"
                                }
                            }
                        }
                    },
                    "422": {
                        "description": "Реальный ответ из теста (HTTP 422)",
                        "content": {
                            "application/json": {
                                "example": {
                                    "code": 422,
                                    "errors": {
                                        "status": [
                                            "Выбранное значение недопустимо."
                                        ]
                                    },
                                    "message": "Необходимо заполнить обязательные поля."
                                }
                            }
                        }
                    },
                    "404": {
                        "description": "Реальный ответ из теста (HTTP 404)",
                        "content": {
                            "application/json": {
                                "example": {
                                    "code": 404,
                                    "message": "Задача с ID 999999 не найдена."
                                }
                            }
                        }
                    }
                },
                "requestBody": {
                    "content": {
                        "application/json": {
                            "example": {
                                "title": "X"
                            }
                        }
                    }
                }
            },
            "delete": {
                "summary": "tasks.destroy",
                "operationId": "tasks.destroy",
                "parameters": [
                    {
                        "name": "id",
                        "in": "path",
                        "required": true,
                        "schema": {
                            "type": "integer"
                        }
                    }
                ],
                "responses": {
                    "200": {
                        "description": "Реальный ответ из теста (HTTP 200)",
                        "content": {
                            "application/json": {
                                "example": {
                                    "code": 200,
                                    "message": "Task deleted successfully"
                                }
                            }
                        }
                    },
                    "404": {
                        "description": "Реальный ответ из теста (HTTP 404)",
                        "content": {
                            "application/json": {
                                "example": {
                                    "code": 404,
                                    "message": "Задача с ID 999999 не найдена."
                                }
                            }
                        }
                    }
                }
            }
        }
    }
}